{
  "items" : [{
    "id" : 1,
    "name" : "Frid",
    "age" : 23
  }, {
    "id" : 2,
    "name" : "Lain",
    "age" : 37
  }, {
    "id" : 3,
    "name" : "Hund",
    "age" : 21
  }, {
    "id" : 2,
    "name" : "Lain",
    "age" : 37
  }, {
    "id" : 3,
    "name" : "Hund",
    "age" : 21
  }, {
    "id" : 2,
    "name" : "Lain",
    "age" : 37
  }, {
    "id" : 3,
    "name" : "Hund",
    "age" : 21
  }, {
    "id" : 2,
    "name" : "Lain",
    "age" : 37
  }, {
    "id" : 3,
    "name" : "Hund",
    "age" : 21
  }, {
    "id" : 2,
    "name" : "Lain",
    "age" : 37
  }, {
    "id" : 3,
    "name" : "Hund",
    "age" : 21
  }, {
    "id" : 2,
    "name" : "Lain",
    "age" : 37
  }, {
    "id" : 3,
    "name" : "Hund",
    "age" : 21
  }, {
    "id" : 2,
    "name" : "Lain",
    "age" : 37
  }, {
    "id" : 3,
    "name" : "Hund",
    "age" : 21
  }, {
    "id" : 2,
    "name" : "Lain",
    "age" : 37
  }, {
    "id" : 3,
    "name" : "Hund",
    "age" : 21
  }, {
    "id" : 2,
    "name" : "Lain",
    "age" : 37
  }, {
    "id" : 3,
    "name" : "Hund",
    "age" : 21
  }, {
    "id" : 2,
    "name" : "Lain",
    "age" : 37
  }, {
    "id" : 3,
    "name" : "Hund",
    "age" : 21
  }, {
    "id" : 2,
    "name" : "Lain",
    "age" : 37
  }, {
    "id" : 3,
    "name" : "Hund",
    "age" : 21
  }, {
    "id" : 2,
    "name" : "Lain",
    "age" : 37
  }, {
    "id" : 3,
    "name" : "Hund",
    "age" : 21
  }, {
    "id" : 2,
    "name" : "Lain",
    "age" : 37
  }, {
    "id" : 3,
    "name" : "Hund",
    "age" : 21
  }, {
    "id" : 2,
    "name" : "Lain",
    "age" : 37
  }, {
    "id" : 3,
    "name" : "Hund",
    "age" : 21
  }, {
    "id" : 2,
    "name" : "Lain",
    "age" : 37
  }, {
    "id" : 3,
    "name" : "Hund",
    "age" : 21
  }, {
    "id" : 2,
    "name" : "Lain",
    "age" : 37
  }, {
    "id" : 3,
    "name" : "Hund",
    "age" : 21
  }, {
    "id" : 2,
    "name" : "Lain",
    "age" : 37
  }, {
    "id" : 3,
    "name" : "Hund",
    "age" : 21
  }, {
    "id" : 2,
    "name" : "Lain",
    "age" : 37
  }, {
    "id" : 3,
    "name" : "Hund",
    "age" : 21
  }, {
    "id" : 2,
    "name" : "Lain",
    "age" : 37
  }, {
    "id" : 3,
    "name" : "Hund",
    "age" : 21
  }, {
    "id" : 2,
    "name" : "Lain",
    "age" : 37
  }, {
    "id" : 3,
    "name" : "Hund",
    "age" : 21
  }, {
    "id" : 2,
    "name" : "Lain",
    "age" : 37
  }, {
    "id" : 3,
    "name" : "Hund",
    "age" : 21
  }, {
    "id" : 2,
    "name" : "Lain",
    "age" : 37
  }, {
    "id" : 3,
    "name" : "Hund",
    "age" : 21
  }, {
    "id" : 2,
    "name" : "Lain",
    "age" : 37
  }, {
    "id" : 3,
    "name" : "Hund",
    "age" : 21
  }, {
    "id" : 2,
    "name" : "Lain",
    "age" : 37
  }, {
    "id" : 3,
    "name" : "Hund",
    "age" : 21
  }, {
    "id" : 2,
    "name" : "Lain",
    "age" : 37
  }, {
    "id" : 3,
    "name" : "Hund",
    "age" : 21
  }, {
    "id" : 2,
    "name" : "Lain",
    "age" : 37
  }, {
    "id" : 3,
    "name" : "Hund",
    "age" : 21
  }, {
    "id" : 2,
    "name" : "Lain",
    "age" : 37
  }, {
    "id" : 3,
    "name" : "Hund",
    "age" : 21
  }, {
    "id" : 2,
    "name" : "Lain",
    "age" : 37
  }, {
    "id" : 3,
    "name" : "Hund",
    "age" : 21
  }, {
    "id" : 2,
    "name" : "Lain",
    "age" : 37
  }, {
    "id" : 3,
    "name" : "Hund",
    "age" : 21
  }, {
    "id" : 2,
    "name" : "Lain",
    "age" : 37
  }, {
    "id" : 3,
    "name" : "Hund",
    "age" : 21
  }, {
    "id" : 2,
    "name" : "Lain",
    "age" : 37
  }, {
    "id" : 3,
    "name" : "Hund",
    "age" : 21
  }, {
    "id" : 2,
    "name" : "Lain",
    "age" : 37
  }, {
    "id" : 3,
    "name" : "Hund",
    "age" : 21
  }, {
    "id" : 2,
    "name" : "Lain",
    "age" : 37
  }, {
    "id" : 3,
    "name" : "Hund",
    "age" : 21
  }, {
    "id" : 2,
    "name" : "Lain",
    "age" : 37
  }, {
    "id" : 3,
    "name" : "Hund",
    "age" : 21
  }, {
    "id" : 2,
    "name" : "Lain",
    "age" : 37
  }, {
    "id" : 3,
    "name" : "Hund",
    "age" : 21
  }, {
    "id" : 2,
    "name" : "Lain",
    "age" : 37
  }, {
    "id" : 3,
    "name" : "Hund",
    "age" : 21
  }, {
    "id" : 3,
    "name" : "Hund",
    "age" : 21
  }, {
    "id" : 3,
    "name" : "Hund",
    "age" : 21
  }, {
    "id" : 3,
    "name" : "Hund",
    "age" : 21
  }, {
    "id" : 3,
    "name" : "Hund",
    "age" : 21
  }, {
    "id" : 3,
    "name" : "Hund",
    "age" : 21
  }, {
    "id" : 3,
    "name" : "Hund",
    "age" : 21
  }, {
    "id" : 3,
    "name" : "Hund",
    "age" : 21
  }],
  "page" : 1,
  "limit" : 20,
  "totalCount" : 94
}